%YAML 1.1
%TAG !u! tag:unity3d.com,2011:
--- !u!1045 &1
EditorBuildSettings:
  m_ObjectHideFlags: 0
  serializedVersion: 2
  m_Scenes:
  - enabled: 1
    path: Assets/TDTK/Scenes/HD_init.unity
  - enabled: 1
    path: Assets/TDTK/Scenes/MainMenu.unity
  - enabled: 1
    path: Assets/TDTK/Scenes/MainMenuHelpScene.unity
  - enabled: 1
    path: Assets/TDTK/Scenes/TutorialPart1(0).unity
  - enabled: 1
    path: Assets/TDTK/Scenes/TutorialPart2(1).unity
  - enabled: 1
    path: Assets/TDTK/Scenes/TutorialPart3(2).unity
  - enabled: 1
    path: Assets/TDTK/Scenes/TowerAttackSimpleLevel_0(Tutorial)New(4).unity
  - enabled: 1
    path: Assets/TDTK/Scenes/TowerAttackSimpleLevel_1New(6).unity
  - enabled: 1
    path: Assets/TDTK/Scenes/TowerAttackSimpleLevel_2New(7).unity
  - enabled: 1
    path: Assets/TDTK/Scenes/TowerAttackSimpleLevel_3New(5).unity
  - enabled: 1
    path: Assets/TDTK/Scenes/TowerAttackSimpleLevel_4New(8).unity
  - enabled: 1
    path: Assets/TDTK/Scenes/TowerAttackSimpleLevel_5New(9).unity
  - enabled: 1
    path: Assets/TDTK/Scenes/TowerAttackSimpleLevel_6New(3).unity
