%YAML 1.1
%TAG !u! tag:unity3d.com,2011:
--- !u!74 &7400000
AnimationClip:
  m_ObjectHideFlags: 0
  m_PrefabParentObject: {fileID: 0}
  m_PrefabInternal: {fileID: 0}
  m_Name: DefaultTowerShoot
  serializedVersion: 4
  m_AnimationType: 2
  m_Compressed: 0
  m_UseHighQualityCurve: 1
  m_RotationCurves: []
  m_CompressedRotationCurves: []
  m_PositionCurves:
  - curve:
      serializedVersion: 2
      m_Curve:
      - time: 0
        value: {x: .230000019, y: -.557853281, z: -6.89663437e-09}
        inSlope: {x: 0, y: 0, z: 0}
        outSlope: {x: 0, y: 0, z: 0}
        tangentMode: 1082130432
      - time: .0166666675
        value: {x: .230000019, y: -.480000019, z: -6.89663437e-09}
        inSlope: {x: 0, y: .648117542, z: 0}
        outSlope: {x: 0, y: -.535173237, z: 0}
        tangentMode: 0
      - time: .13333334
        value: {x: .230000019, y: -.558000028, z: -6.89663437e-09}
        inSlope: {x: 0, y: .000937522971, z: 0}
        outSlope: {x: 0, y: -.000478653616, z: 0}
        tangentMode: 0
      - time: .166666672
        value: {x: .230000019, y: -.558000028, z: -6.89663437e-09}
        inSlope: {x: 0, y: 0, z: 0}
        outSlope: {x: 0, y: 0, z: 0}
        tangentMode: 1077936128
      - time: .183333322
        value: {x: .230000019, y: -.480045259, z: -6.89663437e-09}
        inSlope: {x: 0, y: 0, z: 0}
        outSlope: {x: 0, y: -.393520474, z: 0}
        tangentMode: 0
      - time: .300000012
        value: {x: .230000019, y: -.558000028, z: -6.89663437e-09}
        inSlope: {x: 0, y: 0, z: 0}
        outSlope: {x: 0, y: 0, z: 0}
        tangentMode: 0
      - time: .333333343
        value: {x: .230000019, y: -.558000028, z: -6.89663437e-09}
        inSlope: {x: 0, y: 0, z: 0}
        outSlope: {x: 0, y: 0, z: 0}
        tangentMode: 1088421888
      - time: .350000024
        value: {x: .230000019, y: -.480054677, z: -6.89663437e-09}
        inSlope: {x: 0, y: 0, z: 0}
        outSlope: {x: 0, y: -.387979567, z: 0}
        tangentMode: 0
      - time: .466666698
        value: {x: .230000019, y: -.558000028, z: -6.89663437e-09}
        inSlope: {x: 0, y: 0, z: 0}
        outSlope: {x: 0, y: 0, z: 0}
        tangentMode: 0
      - time: .5
        value: {x: .230000019, y: -.558000028, z: -6.89663437e-09}
        inSlope: {x: 0, y: 0, z: 0}
        outSlope: {x: 0, y: 0, z: 0}
        tangentMode: 1086324736
      - time: .583333373
        value: {x: .230000019, y: -.558000028, z: -6.89663437e-09}
        inSlope: {x: 0, y: 0, z: 0}
        outSlope: {x: 0, y: 0, z: 0}
        tangentMode: 0
      - time: .666666687
        value: {x: .230000019, y: -.558000028, z: -6.89663437e-09}
        inSlope: {x: 0, y: 0, z: 0}
        outSlope: {x: 0, y: 0, z: 0}
        tangentMode: 0
      m_PreInfinity: 2
      m_PostInfinity: 2
    path: Gun1
  - curve:
      serializedVersion: 2
      m_Curve:
      - time: 0
        value: {x: -.230000019, y: -.557853281, z: -6.89663437e-09}
        inSlope: {x: 0, y: 0, z: 0}
        outSlope: {x: 0, y: 0, z: 0}
        tangentMode: 1082130432
      - time: .0833333358
        value: {x: -.230000019, y: -.557853281, z: -6.89663437e-09}
        inSlope: {x: 0, y: 0, z: 0}
        outSlope: {x: 0, y: 0, z: 0}
        tangentMode: 0
      - time: .100000001
        value: {x: -.230000019, y: -.479999989, z: -6.89663437e-09}
        inSlope: {x: 0, y: 0, z: 0}
        outSlope: {x: 0, y: -.386150241, z: 0}
        tangentMode: 0
      - time: .166666672
        value: {x: -.230000019, y: -.531939685, z: -6.89663437e-09}
        inSlope: {x: 0, y: -.862333536, z: 0}
        outSlope: {x: 0, y: -.862333536, z: 0}
        tangentMode: 1077936128
      - time: .216666684
        value: {x: -.230000019, y: -.557853281, z: -6.89663437e-09}
        inSlope: {x: 0, y: 0, z: 0}
        outSlope: {x: 0, y: 0, z: 0}
        tangentMode: 0
      - time: .25
        value: {x: -.230000004, y: -.557853281, z: -6.89663437e-09}
        inSlope: {x: 0, y: 0, z: 0}
        outSlope: {x: 0, y: 0, z: 0}
        tangentMode: 0
      - time: .266666681
        value: {x: -.230000004, y: -.479999989, z: -6.89663437e-09}
        inSlope: {x: -1.7881392e-07, y: 0, z: 0}
        outSlope: {x: -1.7881392e-07, y: -.388495415, z: 0}
        tangentMode: 0
      - time: .333333343
        value: {x: -.230000019, y: -.531968355, z: -6.89663437e-09}
        inSlope: {x: 0, y: -.861615717, z: 0}
        outSlope: {x: 0, y: -.861615717, z: 0}
        tangentMode: 1088421888
      - time: .383333355
        value: {x: -.230000019, y: -.557853281, z: -6.89663437e-09}
        inSlope: {x: 0, y: 0, z: 0}
        outSlope: {x: 0, y: 0, z: 0}
        tangentMode: 0
      - time: .416666687
        value: {x: -.230000019, y: -.557853281, z: -6.89663437e-09}
        inSlope: {x: 0, y: 0, z: 0}
        outSlope: {x: 0, y: 0, z: 0}
        tangentMode: 0
      - time: .433333397
        value: {x: -.230000019, y: -.479999989, z: -6.89663437e-09}
        inSlope: {x: 0, y: 0, z: 0}
        outSlope: {x: 0, y: -.381670356, z: 0}
        tangentMode: 0
      - time: .5
        value: {x: -.230000019, y: -.531884789, z: -6.89663437e-09}
        inSlope: {x: 0, y: -.863705695, z: 0}
        outSlope: {x: 0, y: -.863705695, z: 0}
        tangentMode: 1086324736
      - time: .550000012
        value: {x: -.230000019, y: -.557853281, z: -6.89663437e-09}
        inSlope: {x: 0, y: 0, z: 0}
        outSlope: {x: 0, y: 0, z: 0}
        tangentMode: 0
      - time: .666666687
        value: {x: -.230000019, y: -.557853281, z: -6.89663437e-09}
        inSlope: {x: 0, y: 0, z: 0}
        outSlope: {x: 0, y: 0, z: 0}
        tangentMode: 0
      m_PreInfinity: 2
      m_PostInfinity: 2
    path: Gun2
  m_ScaleCurves: []
  m_FloatCurves: []
  m_PPtrCurves: []
  m_SampleRate: 60
  m_WrapMode: 0
  m_Bounds:
    m_Center: {x: 0, y: 0, z: 0}
    m_Extent: {x: 0, y: 0, z: 0}
  m_ClipBindingConstant:
    genericBindings:
    - path: 3743241008
      attribute: 1
      script: {fileID: 0}
      classID: 4
      customType: 0
      isPPtrCurve: 0
    - path: 1175716490
      attribute: 1
      script: {fileID: 0}
      classID: 4
      customType: 0
      isPPtrCurve: 0
    pptrCurveMapping: []
  m_AnimationClipSettings:
    serializedVersion: 2
    m_StartTime: 0
    m_StopTime: .666666687
    m_OrientationOffsetY: 0
    m_Level: 0
    m_CycleOffset: 0
    m_LoopTime: 1
    m_LoopBlend: 0
    m_LoopBlendOrientation: 0
    m_LoopBlendPositionY: 0
    m_LoopBlendPositionXZ: 0
    m_KeepOriginalOrientation: 0
    m_KeepOriginalPositionY: 1
    m_KeepOriginalPositionXZ: 0
    m_HeightFromFeet: 0
    m_Mirror: 0
  m_EditorCurves:
  - curve:
      serializedVersion: 2
      m_Curve:
      - time: 0
        value: .230000019
        inSlope: 0
        outSlope: 0
        tangentMode: 10
      - time: .166666672
        value: .230000019
        inSlope: 0
        outSlope: 0
        tangentMode: 10
      - time: .333333343
        value: .230000019
        inSlope: 0
        outSlope: 0
        tangentMode: 10
      - time: .5
        value: .230000019
        inSlope: 0
        outSlope: 0
        tangentMode: 10
      - time: .666666687
        value: .230000019
        inSlope: 0
        outSlope: 0
        tangentMode: 10
      m_PreInfinity: 2
      m_PostInfinity: 2
    attribute: m_LocalPosition.x
    path: Gun1
    classID: 4
    script: {fileID: 0}
  - curve:
      serializedVersion: 2
      m_Curve:
      - time: 0
        value: -.557853281
        inSlope: 0
        outSlope: 0
        tangentMode: 1
      - time: .0166666675
        value: -.480000019
        inSlope: .648117542
        outSlope: -.535173237
        tangentMode: 1
      - time: .13333334
        value: -.558000028
        inSlope: .000937522971
        outSlope: -.000478653616
        tangentMode: 1
      - time: .166666672
        value: -.558000028
        inSlope: 0
        outSlope: 0
        tangentMode: 1
      - time: .183333322
        value: -.480045259
        inSlope: 0
        outSlope: -.393520474
        tangentMode: 1
      - time: .300000012
        value: -.558000028
        inSlope: 0
        outSlope: 0
        tangentMode: 1
      - time: .333333373
        value: -.558000028
        inSlope: 0
        outSlope: 0
        tangentMode: 1
      - time: .350000024
        value: -.480054677
        inSlope: 0
        outSlope: -.387979567
        tangentMode: 1
      - time: .466666698
        value: -.558000028
        inSlope: 0
        outSlope: 0
        tangentMode: 1
      - time: .583333373
        value: -.558000028
        inSlope: 0
        outSlope: 0
        tangentMode: 1
      m_PreInfinity: 2
      m_PostInfinity: 2
    attribute: m_LocalPosition.y
    path: Gun1
    classID: 4
    script: {fileID: 0}
  - curve:
      serializedVersion: 2
      m_Curve:
      - time: 0
        value: -6.89663437e-09
        inSlope: 0
        outSlope: 0
        tangentMode: 10
      - time: .166666672
        value: -6.89663437e-09
        inSlope: 0
        outSlope: 0
        tangentMode: 10
      - time: .333333343
        value: -6.89663437e-09
        inSlope: 0
        outSlope: 0
        tangentMode: 10
      - time: .5
        value: -6.89663437e-09
        inSlope: 0
        outSlope: 0
        tangentMode: 10
      - time: .666666687
        value: -6.89663437e-09
        inSlope: 0
        outSlope: 0
        tangentMode: 10
      m_PreInfinity: 2
      m_PostInfinity: 2
    attribute: m_LocalPosition.z
    path: Gun1
    classID: 4
    script: {fileID: 0}
  - curve:
      serializedVersion: 2
      m_Curve:
      - time: 0
        value: -.230000019
        inSlope: 0
        outSlope: 0
        tangentMode: 10
      - time: .166666672
        value: -.230000019
        inSlope: 0
        outSlope: 0
        tangentMode: 10
      - time: .333333343
        value: -.230000019
        inSlope: 0
        outSlope: 0
        tangentMode: 10
      - time: .5
        value: -.230000019
        inSlope: 0
        outSlope: 0
        tangentMode: 10
      - time: .666666687
        value: -.230000019
        inSlope: 0
        outSlope: 0
        tangentMode: 10
      m_PreInfinity: 2
      m_PostInfinity: 2
    attribute: m_LocalPosition.x
    path: Gun2
    classID: 4
    script: {fileID: 0}
  - curve:
      serializedVersion: 2
      m_Curve:
      - time: 0
        value: -.557853281
        inSlope: 0
        outSlope: 0
        tangentMode: 1
      - time: .0833333358
        value: -.557853281
        inSlope: 0
        outSlope: 0
        tangentMode: 1
      - time: .100000001
        value: -.479999989
        inSlope: 0
        outSlope: -.386150241
        tangentMode: 1
      - time: .216666684
        value: -.557853281
        inSlope: 0
        outSlope: 0
        tangentMode: 1
      - time: .25
        value: -.557853281
        inSlope: 0
        outSlope: 0
        tangentMode: 1
      - time: .266666681
        value: -.479999989
        inSlope: 0
        outSlope: -.388495415
        tangentMode: 1
      - time: .383333355
        value: -.557853281
        inSlope: 0
        outSlope: 0
        tangentMode: 1
      - time: .416666687
        value: -.557853281
        inSlope: 0
        outSlope: 0
        tangentMode: 1
      - time: .433333397
        value: -.479999989
        inSlope: 0
        outSlope: -.381670356
        tangentMode: 1
      - time: .550000012
        value: -.557853281
        inSlope: 0
        outSlope: 0
        tangentMode: 1
      m_PreInfinity: 2
      m_PostInfinity: 2
    attribute: m_LocalPosition.y
    path: Gun2
    classID: 4
    script: {fileID: 0}
  - curve:
      serializedVersion: 2
      m_Curve:
      - time: 0
        value: -6.89663437e-09
        inSlope: 0
        outSlope: 0
        tangentMode: 10
      - time: .166666672
        value: -6.89663437e-09
        inSlope: 0
        outSlope: 0
        tangentMode: 10
      - time: .333333343
        value: -6.89663437e-09
        inSlope: 0
        outSlope: 0
        tangentMode: 10
      - time: .5
        value: -6.89663437e-09
        inSlope: 0
        outSlope: 0
        tangentMode: 10
      - time: .666666687
        value: -6.89663437e-09
        inSlope: 0
        outSlope: 0
        tangentMode: 10
      m_PreInfinity: 2
      m_PostInfinity: 2
    attribute: m_LocalPosition.z
    path: Gun2
    classID: 4
    script: {fileID: 0}
  m_EulerEditorCurves: []
  m_Events: []
