%YAML 1.1
%TAG !u! tag:unity3d.com,2011:
--- !u!74 &7400000
AnimationClip:
  m_ObjectHideFlags: 0
  m_PrefabParentObject: {fileID: 0}
  m_PrefabInternal: {fileID: 0}
  m_Name: Move
  serializedVersion: 4
  m_AnimationType: 2
  m_Compressed: 0
  m_UseHighQualityCurve: 1
  m_RotationCurves:
  - curve:
      serializedVersion: 2
      m_Curve:
      - time: 0
        value: {x: 0, y: 0, z: 0, w: 1}
        inSlope: {x: 1.21466613, y: 0, z: 0, w: -.0122952452}
        outSlope: {x: 1.21466613, y: 0, z: 0, w: -.0122952452}
        tangentMode: 0
      - time: .0166666675
        value: {x: .0202444363, y: 0, z: 0, w: .999795079}
        inSlope: {x: 1.29811954, y: 0, z: 0, w: -.0280988198}
        outSlope: {x: 1.29811954, y: 0, z: 0, w: -.0280988198}
        tangentMode: 0
      - time: .0333333351
        value: {x: .0432706513, y: 0, z: 0, w: .999063373}
        inSlope: {x: 1.33908617, y: 0, z: 0, w: -.0570613071}
        outSlope: {x: 1.33908617, y: 0, z: 0, w: -.0570613071}
        tangentMode: 1093664768
      - time: .0500000045
        value: {x: .0648806468, y: 0, z: 0, w: .997893035}
        inSlope: {x: 1.1287241, y: 0, z: 0, w: -.0702220201}
        outSlope: {x: 1.1287241, y: 0, z: 0, w: -.0702220201}
        tangentMode: 1093664768
      - time: .0666666701
        value: {x: .0808947906, y: 0, z: 0, w: .996722639}
        inSlope: {x: .668252766, y: 0, z: 0, w: -.0509494618}
        outSlope: {x: .668252766, y: 0, z: 0, w: -.0509494618}
        tangentMode: 1093664768
      - time: .0833333358
        value: {x: .087155737, y: 0, z: 0, w: .99619472}
        inSlope: {x: .0417479128, y: 0, z: 0, w: -.00341713522}
        outSlope: {x: .0417479128, y: 0, z: 0, w: -.00341713522}
        tangentMode: 1093664768
      - time: .100000001
        value: {x: .0822863877, y: 0, z: 0, w: .996608734}
        inSlope: {x: -.542871535, y: 0, z: 0, w: .0425344743}
        outSlope: {x: -.542871535, y: 0, z: 0, w: .0425344743}
        tangentMode: 1093664768
      - time: .116666667
        value: {x: .0690600201, y: 0, z: 0, w: .997612536}
        inSlope: {x: -.98217994, y: 0, z: 0, w: .0648915619}
        outSlope: {x: -.98217994, y: 0, z: 0, w: .0648915619}
        tangentMode: 1102053376
      - time: .13333334
        value: {x: .0495470501, y: 0, z: 0, w: .998771787}
        inSlope: {x: -1.29696059, y: 0, z: 0, w: .0616156906}
        outSlope: {x: -1.29696059, y: 0, z: 0, w: .0616156906}
        tangentMode: 1102053376
      - time: .150000006
        value: {x: .0258279946, y: 0, z: 0, w: .999666393}
        inSlope: {x: -1.48641157, y: 0, z: 0, w: .036846403}
        outSlope: {x: -1.48641157, y: 0, z: 0, w: .036846403}
        tangentMode: 1102053376
      - time: .166666672
        value: {x: -1.74346093e-09, y: 0, z: 0, w: 1}
        inSlope: {x: -1.54967976, y: 0, z: 0, w: 0}
        outSlope: {x: -1.54967976, y: 0, z: 0, w: 0}
        tangentMode: 1107558400
      - time: .183333337
        value: {x: -.0258279964, y: 0, z: 0, w: .999666393}
        inSlope: {x: -1.48641133, y: 0, z: 0, w: -.036846403}
        outSlope: {x: -1.48641133, y: 0, z: 0, w: -.036846403}
        tangentMode: 1107558400
      - time: .200000003
        value: {x: -.0495470464, y: 0, z: 0, w: .998771787}
        inSlope: {x: -1.29696012, y: 0, z: 0, w: -.0616157129}
        outSlope: {x: -1.29696012, y: 0, z: 0, w: -.0616157129}
        tangentMode: 1107558400
      - time: .216666669
        value: {x: -.0690599978, y: 0, z: 0, w: .997612536}
        inSlope: {x: -.98217988, y: 0, z: 0, w: -.0648915842}
        outSlope: {x: -.98217988, y: 0, z: 0, w: -.0648915842}
        tangentMode: 1107558400
      - time: .233333334
        value: {x: -.0822863728, y: 0, z: 0, w: .996608734}
        inSlope: {x: -.54287219, y: 0, z: 0, w: -.0425344743}
        outSlope: {x: -.54287219, y: 0, z: 0, w: -.0425344743}
        tangentMode: 1107558400
      - time: .25
        value: {x: -.087155737, y: 0, z: 0, w: .99619472}
        inSlope: {x: .041747734, y: 0, z: 0, w: .00341712032}
        outSlope: {x: .041747734, y: 0, z: 0, w: .00341712032}
        tangentMode: 1110441984
      - time: .266666681
        value: {x: -.0808947757, y: 0, z: 0, w: .996722639}
        inSlope: {x: .668253064, y: 0, z: 0, w: .0509494096}
        outSlope: {x: .668253064, y: 0, z: 0, w: .0509494096}
        tangentMode: 1110441984
      - time: .283333361
        value: {x: -.064880617, y: 0, z: 0, w: .997893035}
        inSlope: {x: 1.12872434, y: 0, z: 0, w: .0702219605}
        outSlope: {x: 1.12872434, y: 0, z: 0, w: .0702219605}
        tangentMode: 1110441984
      - time: .300000042
        value: {x: -.0432705991, y: 0, z: 0, w: .999063373}
        inSlope: {x: 1.33908641, y: 0, z: 0, w: .0570612662}
        outSlope: {x: 1.33908641, y: 0, z: 0, w: .0570612662}
        tangentMode: 1110441984
      - time: .316666722
        value: {x: -.0202443656, y: 0, z: 0, w: .999795079}
        inSlope: {x: 1.29811907, y: 0, z: 0, w: .0280988198}
        outSlope: {x: 1.29811907, y: 0, z: 0, w: .0280988198}
        tangentMode: 1110441984
      - time: .333333343
        value: {x: 0, y: 0, z: 0, w: 1}
        inSlope: {x: 1.21466529, y: 0, z: 0, w: .0122952797}
        outSlope: {x: 1.21466529, y: 0, z: 0, w: .0122952797}
        tangentMode: 1113325568
      m_PreInfinity: 2
      m_PostInfinity: 2
    path: 
  m_CompressedRotationCurves: []
  m_PositionCurves:
  - curve:
      serializedVersion: 2
      m_Curve:
      - time: 0
        value: {x: 0, y: 0, z: 0}
        inSlope: {x: 0, y: 1.5, z: 0}
        outSlope: {x: 0, y: 1.5, z: 0}
        tangentMode: 0
      - time: .166666672
        value: {x: 0, y: .25, z: 0}
        inSlope: {x: 0, y: 0, z: 0}
        outSlope: {x: 0, y: 0, z: 0}
        tangentMode: 0
      - time: .333333343
        value: {x: 0, y: 0, z: 0}
        inSlope: {x: 0, y: -1.5, z: 0}
        outSlope: {x: 0, y: -1.5, z: 0}
        tangentMode: 133534500
      m_PreInfinity: 2
      m_PostInfinity: 2
    path: 
  m_ScaleCurves: []
  m_FloatCurves: []
  m_PPtrCurves: []
  m_SampleRate: 60
  m_WrapMode: 0
  m_Bounds:
    m_Center: {x: 0, y: 0, z: 0}
    m_Extent: {x: 0, y: 0, z: 0}
  m_ClipBindingConstant:
    genericBindings:
    - path: 0
      attribute: 1
      script: {fileID: 0}
      classID: 4
      customType: 0
      isPPtrCurve: 0
    - path: 0
      attribute: 2
      script: {fileID: 0}
      classID: 4
      customType: 0
      isPPtrCurve: 0
    pptrCurveMapping: []
  m_AnimationClipSettings:
    serializedVersion: 2
    m_StartTime: 0
    m_StopTime: .333333343
    m_OrientationOffsetY: 0
    m_Level: 0
    m_CycleOffset: 0
    m_LoopTime: 1
    m_LoopBlend: 0
    m_LoopBlendOrientation: 0
    m_LoopBlendPositionY: 0
    m_LoopBlendPositionXZ: 0
    m_KeepOriginalOrientation: 0
    m_KeepOriginalPositionY: 1
    m_KeepOriginalPositionXZ: 0
    m_HeightFromFeet: 0
    m_Mirror: 0
  m_EditorCurves:
  - curve:
      serializedVersion: 2
      m_Curve:
      - time: 0
        value: 0
        inSlope: 0
        outSlope: 0
        tangentMode: 10
      - time: .333333343
        value: 0
        inSlope: 0
        outSlope: 0
        tangentMode: 10
      m_PreInfinity: 2
      m_PostInfinity: 2
    attribute: m_LocalPosition.x
    path: 
    classID: 4
    script: {fileID: 0}
  - curve:
      serializedVersion: 2
      m_Curve:
      - time: 0
        value: 0
        inSlope: 1.5
        outSlope: 1.5
        tangentMode: 10
      - time: .166666672
        value: .25
        inSlope: 0
        outSlope: 0
        tangentMode: 10
      - time: .333333343
        value: 0
        inSlope: -1.5
        outSlope: -1.5
        tangentMode: 10
      m_PreInfinity: 2
      m_PostInfinity: 2
    attribute: m_LocalPosition.y
    path: 
    classID: 4
    script: {fileID: 0}
  - curve:
      serializedVersion: 2
      m_Curve:
      - time: 0
        value: 0
        inSlope: 0
        outSlope: 0
        tangentMode: 10
      - time: .333333343
        value: 0
        inSlope: 0
        outSlope: 0
        tangentMode: 10
      m_PreInfinity: 2
      m_PostInfinity: 2
    attribute: m_LocalPosition.z
    path: 
    classID: 4
    script: {fileID: 0}
  - curve:
      serializedVersion: 2
      m_Curve:
      - time: 0
        value: 0
        inSlope: 1.21466613
        outSlope: 1.21466613
        tangentMode: 0
      - time: .0166666675
        value: .0202444363
        inSlope: 1.29811954
        outSlope: 1.29811954
        tangentMode: 0
      - time: .0333333351
        value: .0432706513
        inSlope: 1.33908617
        outSlope: 1.33908617
        tangentMode: 0
      - time: .0500000045
        value: .0648806468
        inSlope: 1.1287241
        outSlope: 1.1287241
        tangentMode: 0
      - time: .0666666701
        value: .0808947906
        inSlope: .668252766
        outSlope: .668252766
        tangentMode: 0
      - time: .0833333358
        value: .087155737
        inSlope: .0417479128
        outSlope: .0417479128
        tangentMode: 0
      - time: .100000001
        value: .0822863877
        inSlope: -.542871535
        outSlope: -.542871535
        tangentMode: 0
      - time: .116666667
        value: .0690600201
        inSlope: -.98217994
        outSlope: -.98217994
        tangentMode: 0
      - time: .13333334
        value: .0495470501
        inSlope: -1.29696059
        outSlope: -1.29696059
        tangentMode: 0
      - time: .150000006
        value: .0258279946
        inSlope: -1.48641157
        outSlope: -1.48641157
        tangentMode: 0
      - time: .166666672
        value: -1.74346093e-09
        inSlope: -1.54967976
        outSlope: -1.54967976
        tangentMode: 0
      - time: .183333337
        value: -.0258279964
        inSlope: -1.48641133
        outSlope: -1.48641133
        tangentMode: 0
      - time: .200000003
        value: -.0495470464
        inSlope: -1.29696012
        outSlope: -1.29696012
        tangentMode: 0
      - time: .216666669
        value: -.0690599978
        inSlope: -.98217988
        outSlope: -.98217988
        tangentMode: 0
      - time: .233333334
        value: -.0822863728
        inSlope: -.54287219
        outSlope: -.54287219
        tangentMode: 0
      - time: .25
        value: -.087155737
        inSlope: .041747734
        outSlope: .041747734
        tangentMode: 0
      - time: .266666681
        value: -.0808947757
        inSlope: .668253064
        outSlope: .668253064
        tangentMode: 0
      - time: .283333361
        value: -.064880617
        inSlope: 1.12872434
        outSlope: 1.12872434
        tangentMode: 0
      - time: .300000042
        value: -.0432705991
        inSlope: 1.33908641
        outSlope: 1.33908641
        tangentMode: 0
      - time: .316666722
        value: -.0202443656
        inSlope: 1.29811907
        outSlope: 1.29811907
        tangentMode: 0
      - time: .333333343
        value: 0
        inSlope: 1.21466529
        outSlope: 1.21466529
        tangentMode: 0
      m_PreInfinity: 2
      m_PostInfinity: 2
    attribute: m_LocalRotation.x
    path: 
    classID: 4
    script: {fileID: 0}
  - curve:
      serializedVersion: 2
      m_Curve:
      - time: 0
        value: 0
        inSlope: 0
        outSlope: 0
        tangentMode: 0
      - time: .0166666675
        value: 0
        inSlope: 0
        outSlope: 0
        tangentMode: 0
      - time: .0333333351
        value: 0
        inSlope: 0
        outSlope: 0
        tangentMode: 0
      - time: .0500000045
        value: 0
        inSlope: 0
        outSlope: 0
        tangentMode: 0
      - time: .0666666701
        value: 0
        inSlope: 0
        outSlope: 0
        tangentMode: 0
      - time: .0833333358
        value: 0
        inSlope: 0
        outSlope: 0
        tangentMode: 0
      - time: .100000001
        value: 0
        inSlope: 0
        outSlope: 0
        tangentMode: 0
      - time: .116666667
        value: 0
        inSlope: 0
        outSlope: 0
        tangentMode: 0
      - time: .13333334
        value: 0
        inSlope: 0
        outSlope: 0
        tangentMode: 0
      - time: .150000006
        value: 0
        inSlope: 0
        outSlope: 0
        tangentMode: 0
      - time: .166666672
        value: 0
        inSlope: 0
        outSlope: 0
        tangentMode: 0
      - time: .183333337
        value: 0
        inSlope: 0
        outSlope: 0
        tangentMode: 0
      - time: .200000003
        value: 0
        inSlope: 0
        outSlope: 0
        tangentMode: 0
      - time: .216666669
        value: 0
        inSlope: 0
        outSlope: 0
        tangentMode: 0
      - time: .233333334
        value: 0
        inSlope: 0
        outSlope: 0
        tangentMode: 0
      - time: .25
        value: 0
        inSlope: 0
        outSlope: 0
        tangentMode: 0
      - time: .266666681
        value: 0
        inSlope: 0
        outSlope: 0
        tangentMode: 0
      - time: .283333361
        value: 0
        inSlope: 0
        outSlope: 0
        tangentMode: 0
      - time: .300000042
        value: 0
        inSlope: 0
        outSlope: 0
        tangentMode: 0
      - time: .316666722
        value: 0
        inSlope: 0
        outSlope: 0
        tangentMode: 0
      - time: .333333343
        value: 0
        inSlope: 0
        outSlope: 0
        tangentMode: 0
      m_PreInfinity: 2
      m_PostInfinity: 2
    attribute: m_LocalRotation.y
    path: 
    classID: 4
    script: {fileID: 0}
  - curve:
      serializedVersion: 2
      m_Curve:
      - time: 0
        value: 0
        inSlope: 0
        outSlope: 0
        tangentMode: 0
      - time: .0166666675
        value: 0
        inSlope: 0
        outSlope: 0
        tangentMode: 0
      - time: .0333333351
        value: 0
        inSlope: 0
        outSlope: 0
        tangentMode: 0
      - time: .0500000045
        value: 0
        inSlope: 0
        outSlope: 0
        tangentMode: 0
      - time: .0666666701
        value: 0
        inSlope: 0
        outSlope: 0
        tangentMode: 0
      - time: .0833333358
        value: 0
        inSlope: 0
        outSlope: 0
        tangentMode: 0
      - time: .100000001
        value: 0
        inSlope: 0
        outSlope: 0
        tangentMode: 0
      - time: .116666667
        value: 0
        inSlope: 0
        outSlope: 0
        tangentMode: 0
      - time: .13333334
        value: 0
        inSlope: 0
        outSlope: 0
        tangentMode: 0
      - time: .150000006
        value: 0
        inSlope: 0
        outSlope: 0
        tangentMode: 0
      - time: .166666672
        value: 0
        inSlope: 0
        outSlope: 0
        tangentMode: 0
      - time: .183333337
        value: 0
        inSlope: 0
        outSlope: 0
        tangentMode: 0
      - time: .200000003
        value: 0
        inSlope: 0
        outSlope: 0
        tangentMode: 0
      - time: .216666669
        value: 0
        inSlope: 0
        outSlope: 0
        tangentMode: 0
      - time: .233333334
        value: 0
        inSlope: 0
        outSlope: 0
        tangentMode: 0
      - time: .25
        value: 0
        inSlope: 0
        outSlope: 0
        tangentMode: 0
      - time: .266666681
        value: 0
        inSlope: 0
        outSlope: 0
        tangentMode: 0
      - time: .283333361
        value: 0
        inSlope: 0
        outSlope: 0
        tangentMode: 0
      - time: .300000042
        value: 0
        inSlope: 0
        outSlope: 0
        tangentMode: 0
      - time: .316666722
        value: 0
        inSlope: 0
        outSlope: 0
        tangentMode: 0
      - time: .333333343
        value: 0
        inSlope: 0
        outSlope: 0
        tangentMode: 0
      m_PreInfinity: 2
      m_PostInfinity: 2
    attribute: m_LocalRotation.z
    path: 
    classID: 4
    script: {fileID: 0}
  - curve:
      serializedVersion: 2
      m_Curve:
      - time: 0
        value: 1
        inSlope: -.0122952452
        outSlope: -.0122952452
        tangentMode: 0
      - time: .0166666675
        value: .999795079
        inSlope: -.0280988198
        outSlope: -.0280988198
        tangentMode: 0
      - time: .0333333351
        value: .999063373
        inSlope: -.0570613071
        outSlope: -.0570613071
        tangentMode: 0
      - time: .0500000045
        value: .997893035
        inSlope: -.0702220201
        outSlope: -.0702220201
        tangentMode: 0
      - time: .0666666701
        value: .996722639
        inSlope: -.0509494618
        outSlope: -.0509494618
        tangentMode: 0
      - time: .0833333358
        value: .99619472
        inSlope: -.00341713522
        outSlope: -.00341713522
        tangentMode: 0
      - time: .100000001
        value: .996608734
        inSlope: .0425344743
        outSlope: .0425344743
        tangentMode: 0
      - time: .116666667
        value: .997612536
        inSlope: .0648915619
        outSlope: .0648915619
        tangentMode: 0
      - time: .13333334
        value: .998771787
        inSlope: .0616156906
        outSlope: .0616156906
        tangentMode: 0
      - time: .150000006
        value: .999666393
        inSlope: .036846403
        outSlope: .036846403
        tangentMode: 0
      - time: .166666672
        value: 1
        inSlope: 0
        outSlope: 0
        tangentMode: 0
      - time: .183333337
        value: .999666393
        inSlope: -.036846403
        outSlope: -.036846403
        tangentMode: 0
      - time: .200000003
        value: .998771787
        inSlope: -.0616157129
        outSlope: -.0616157129
        tangentMode: 0
      - time: .216666669
        value: .997612536
        inSlope: -.0648915842
        outSlope: -.0648915842
        tangentMode: 0
      - time: .233333334
        value: .996608734
        inSlope: -.0425344743
        outSlope: -.0425344743
        tangentMode: 0
      - time: .25
        value: .99619472
        inSlope: .00341712032
        outSlope: .00341712032
        tangentMode: 0
      - time: .266666681
        value: .996722639
        inSlope: .0509494096
        outSlope: .0509494096
        tangentMode: 0
      - time: .283333361
        value: .997893035
        inSlope: .0702219605
        outSlope: .0702219605
        tangentMode: 0
      - time: .300000042
        value: .999063373
        inSlope: .0570612662
        outSlope: .0570612662
        tangentMode: 0
      - time: .316666722
        value: .999795079
        inSlope: .0280988198
        outSlope: .0280988198
        tangentMode: 0
      - time: .333333343
        value: 1
        inSlope: .0122952797
        outSlope: .0122952797
        tangentMode: 0
      m_PreInfinity: 2
      m_PostInfinity: 2
    attribute: m_LocalRotation.w
    path: 
    classID: 4
    script: {fileID: 0}
  m_EulerEditorCurves:
  - curve:
      serializedVersion: 2
      m_Curve:
      - time: 0
        value: 0
        inSlope: 120
        outSlope: 120
        tangentMode: 10
      - time: .0833333358
        value: 10
        inSlope: -3.81469727e-06
        outSlope: -3.81469727e-06
        tangentMode: 10
      - time: .25
        value: -10
        inSlope: -1.14440918e-05
        outSlope: -1.14440918e-05
        tangentMode: 10
      - time: .333333343
        value: 0
        inSlope: 119.999985
        outSlope: 119.999985
        tangentMode: 10
      m_PreInfinity: 2
      m_PostInfinity: 2
    attribute: localEulerAnglesBaked.x
    path: 
    classID: 4
    script: {fileID: 0}
  - curve:
      serializedVersion: 2
      m_Curve:
      - time: 0
        value: 0
        inSlope: 0
        outSlope: 0
        tangentMode: 10
      - time: .333333343
        value: 0
        inSlope: 0
        outSlope: 0
        tangentMode: 10
      m_PreInfinity: 2
      m_PostInfinity: 2
    attribute: localEulerAnglesBaked.y
    path: 
    classID: 4
    script: {fileID: 0}
  - curve:
      serializedVersion: 2
      m_Curve:
      - time: 0
        value: 0
        inSlope: 0
        outSlope: 0
        tangentMode: 10
      - time: .333333343
        value: 0
        inSlope: 0
        outSlope: 0
        tangentMode: 10
      m_PreInfinity: 2
      m_PostInfinity: 2
    attribute: localEulerAnglesBaked.z
    path: 
    classID: 4
    script: {fileID: 0}
  m_Events: []
