%YAML 1.1
%TAG !u! tag:unity3d.com,2011:
--- !u!1 &100000
GameObject:
  m_ObjectHideFlags: 0
  m_PrefabParentObject: {fileID: 0}
  m_PrefabInternal: {fileID: 100100000}
  serializedVersion: 4
  m_Component:
  - 4: {fileID: 400000}
  - 114: {fileID: 11400000}
  m_Layer: 0
  m_Name: DamageArmorDB
  m_TagString: Untagged
  m_Icon: {fileID: 0}
  m_NavMeshLayer: 0
  m_StaticEditorFlags: 0
  m_IsActive: 1
--- !u!4 &400000
Transform:
  m_ObjectHideFlags: 1
  m_PrefabParentObject: {fileID: 0}
  m_PrefabInternal: {fileID: 100100000}
  m_GameObject: {fileID: 100000}
  m_LocalRotation: {x: 0, y: 0, z: 0, w: 1}
  m_LocalPosition: {x: 0, y: 0, z: 0}
  m_LocalScale: {x: 1, y: 1, z: 1}
  m_Children: []
  m_Father: {fileID: 0}
  m_RootOrder: 0
--- !u!114 &11400000
MonoBehaviour:
  m_ObjectHideFlags: 1
  m_PrefabParentObject: {fileID: 0}
  m_PrefabInternal: {fileID: 100100000}
  m_GameObject: {fileID: 100000}
  m_Enabled: 1
  m_EditorHideFlags: 0
  m_Script: {fileID: 11500000, guid: 3594242174a8d104a8a22d1074700870, type: 3}
  m_Name: 
  m_EditorClassIdentifier: 
  armorTypeList:
  - ID: 0
    name: rockArmor
    icon: {fileID: 0}
    desp: 
    modifiers:
    - 1
    - 3
    - .400000006
    - 1.10000002
    - 2.0999999
    - .200000003
  - ID: 0
    name: paperArmor
    icon: {fileID: 0}
    desp: 
    modifiers:
    - .400000006
    - 1
    - 3
    - .200000003
    - 1.10000002
    - 2.0999999
  - ID: 0
    name: scissorArmor
    icon: {fileID: 0}
    desp: 
    modifiers:
    - 3
    - .400000006
    - 1
    - 2.0999999
    - .200000003
    - 1.10000002
  - ID: 0
    name: PRockArmor
    icon: {fileID: 0}
    desp: 
    modifiers:
    - 1
    - 1.5
    - .200000003
    - 0
    - 0
    - 0
  - ID: 0
    name: PPaperArmor
    icon: {fileID: 0}
    desp: 
    modifiers:
    - .200000003
    - 1
    - 1.5
    - 0
    - 0
    - 0
  - ID: 0
    name: PScissorArmor
    icon: {fileID: 0}
    desp: 
    modifiers:
    - 1.5
    - .200000003
    - 1
    - 0
    - 0
    - 0
  damageTypeList:
  - ID: 0
    name: rockDamage
    icon: {fileID: 0}
    desp: 
  - ID: 0
    name: paperDamage
    icon: {fileID: 0}
    desp: 
  - ID: 0
    name: scissorDamage
    icon: {fileID: 0}
    desp: 
  - ID: 0
    name: PRockDamage
    icon: {fileID: 0}
    desp: 
  - ID: 0
    name: PPaperDamage
    icon: {fileID: 0}
    desp: 
  - ID: 0
    name: PScissorDamage
    icon: {fileID: 0}
    desp: 
--- !u!1001 &100100000
Prefab:
  m_ObjectHideFlags: 1
  serializedVersion: 2
  m_Modification:
    m_TransformParent: {fileID: 0}
    m_Modifications: []
    m_RemovedComponents: []
  m_ParentPrefab: {fileID: 0}
  m_RootGameObject: {fileID: 100000}
  m_IsPrefabParent: 1
  m_IsExploded: 1
