%YAML 1.1
%TAG !u! tag:unity3d.com,2011:
--- !u!1 &100000
GameObject:
  m_ObjectHideFlags: 0
  m_PrefabParentObject: {fileID: 0}
  m_PrefabInternal: {fileID: 100100000}
  serializedVersion: 4
  m_Component:
  - 4: {fileID: 400000}
  - 114: {fileID: 11400000}
  m_Layer: 0
  m_Name: TowerDB
  m_TagString: Untagged
  m_Icon: {fileID: 0}
  m_NavMeshLayer: 0
  m_StaticEditorFlags: 0
  m_IsActive: 1
--- !u!4 &400000
Transform:
  m_ObjectHideFlags: 1
  m_PrefabParentObject: {fileID: 0}
  m_PrefabInternal: {fileID: 100100000}
  m_GameObject: {fileID: 100000}
  m_LocalRotation: {x: 0, y: 0, z: 0, w: 1}
  m_LocalPosition: {x: 0, y: 0, z: 0}
  m_LocalScale: {x: 1, y: 1, z: 1}
  m_Children: []
  m_Father: {fileID: 0}
  m_RootOrder: 0
--- !u!114 &11400000
MonoBehaviour:
  m_ObjectHideFlags: 1
  m_PrefabParentObject: {fileID: 0}
  m_PrefabInternal: {fileID: 100100000}
  m_GameObject: {fileID: 100000}
  m_Enabled: 1
  m_EditorHideFlags: 0
  m_Script: {fileID: 11500000, guid: 45ce95b4d9dbfb24db664eae2fde8626, type: 3}
  m_Name: 
  m_EditorClassIdentifier: 
  towerList:
  - {fileID: 11400000, guid: 8592464f282ff0548b458332e4e05034, type: 2}
  - {fileID: 11400002, guid: dbd77edcdc3353241951cb7adf34c34c, type: 2}
  - {fileID: 11400000, guid: 1891f340dfa2ed84daf4815043b61123, type: 2}
  - {fileID: 11402458, guid: 1fad5e7ae10e5724baf5e80c4bd8c989, type: 2}
  - {fileID: 11400000, guid: 002a387c0026b5744b5cd04618867f9f, type: 2}
  - {fileID: 11400000, guid: c695c43431fc65440ad4d1b9347c3392, type: 2}
  - {fileID: 11400000, guid: 1f6c611934bf3b24c92506a83819b4aa, type: 2}
  - {fileID: 11400000, guid: e4779965d11ab4ae5b5e45ddb8719861, type: 2}
  - {fileID: 11400000, guid: 68aae35e4d6738b49b24d50cc23f13a5, type: 2}
  - {fileID: 11400000, guid: 9a955bf955a1a9849936cdfc70cbf620, type: 2}
  - {fileID: 11400000, guid: e9609f36da3e386459da8743be952163, type: 2}
  - {fileID: 11400000, guid: 128d5bbd69e6c0644ae1577bb2c6c4e2, type: 2}
  - {fileID: 11400000, guid: 99f84c66f13ab644cac280c7264a4a5d, type: 2}
  - {fileID: 11400000, guid: 97050d325f237d94bad324cd9c4b71ae, type: 2}
  - {fileID: 11442286, guid: 5c203ee341de34a4abb79bcd65d75cb3, type: 2}
  - {fileID: 11445118, guid: a2c6091bf23122048b4c2b7412ff3293, type: 2}
  - {fileID: 11486410, guid: 8f3e001fb4766a74da820832817b65b5, type: 2}
  - {fileID: 11474930, guid: fd80d5c194fa53446908482be6d8aa48, type: 2}
  - {fileID: 11439408, guid: 5d35692a1324ba4489f6c1b2d02d271f, type: 2}
  - {fileID: 11466800, guid: 4f598a73b67d56041a5af3945330c65b, type: 2}
--- !u!1001 &100100000
Prefab:
  m_ObjectHideFlags: 1
  serializedVersion: 2
  m_Modification:
    m_TransformParent: {fileID: 0}
    m_Modifications: []
    m_RemovedComponents: []
  m_ParentPrefab: {fileID: 0}
  m_RootGameObject: {fileID: 100000}
  m_IsPrefabParent: 1
  m_IsExploded: 1
